Meriam
 X:1
 Y:1
 LEFT:1
 RIGHT:2
 BOTTOM:1
 TOP:1
Meriam
 X:1
 Y:2
 LEFT:1
 RIGHT:2
 BOTTOM:2
 TOP:2
Elpijizoid
 X:12
 Y:3
 LEFT:12
 RIGHT:14
 BOTTOM:3
 TOP:4
FALL, X=12Y=3IndexCharX=3IndexCharY=2
Genderuwo
 X:12
 Y:1
 LEFT:12
 RIGHT:13
 BOTTOM:1
 TOP:1
FALL, X=12Y=1IndexCharX=3IndexCharY=4
GRD2
 X:9
 Y:4
 LEFT:9
 RIGHT:11
 BOTTOM:4
 TOP:4
FALL, X=9Y=3IndexCharX=6IndexCharY=2
