Meriam
 X:1
 Y:1
 LEFT:1
 RIGHT:2
 BOTTOM:1
 TOP:1
Meriam
 X:1
 Y:2
 LEFT:1
 RIGHT:2
 BOTTOM:2
 TOP:2
Elpijizoid
 X:12
 Y:3
 LEFT:12
 RIGHT:13
 BOTTOM:3
 TOP:4
Genderuwo
 X:12
 Y:1
 LEFT:12
 RIGHT:13
 BOTTOM:1
 TOP:1
GRD2
 X:9
 Y:4
 LEFT:9
 RIGHT:11
 BOTTOM:4
 TOP:4
